C-
C-
F
C+
C
C-
F
C-
A
D-
D+
D+
B-
B-
B+
F
F
C-
B-
F
C+
B+
C
F
C+
B-
C
C+
B
B-
F
C
B-
B
D-
B-
C
C
D+
D+
C-
F
B-
B+
C
B
C
F
A
C+
C-
A-
C+
B
B-
C-
C-
C-
B+
B-
B
F
C+
C-
B
C-
D+
D
D-
C-
F
C+
D+
F
C
F
C-
D-
D-
F
C+
A
D+
C-
C-
B-
F
C-
C-
C
D+
F
F
F
C-
D+
C-
C-
D-
B+
C+
B-
F
D+
D-
C-
B-
D+
F
C+
C
C
C-
D+
C+
C+
D-
C-
D+
B-
C
F
C
D+
B-
C-
F
C-
A-
C+
C
D
B-
D-
C+
C+
D
A
D-
C-
A
B
D-
D-
C-
C-
C+
C+
C-
C-
A
C-
F
F
B
D-
D-
D+
D-
C
A
C-
D-
B-
C+
C
C
C-
C+
D-
F
D-
B
C
B-
D-
F
B-
F
F
B-
C
C+
C-
C-
C-
C+
D-
D-
B
C+
C+
C+
C+
D-
D-
B-
C
C-
D+
D-
C-
D-
D-
C
C-
D-
D-
C+
D+
F
C-
B+
C+
D+
D+
C+
F
C
B-
D-
D-
C
F
B-
C
F
F
C-
B+
C-
D
A-
D-
D-
C-
C-
C+
D+
F
C+
F
C
C-
F
C
B-
C-
C-
C-
B-
C
C+
B+
D+
C-
C-
C+
B
D-
D-
D-
D-
D-
D+
D+
D-
F
C-
C+
C
B
F
B
B-
C
F
F
B+
C+
F
C
B
C-
C-
A
C
F
C
C
C
C+
F
B+
C
D+
B
